…
<img src="{{< blogdown/postref >}}index_files/figure-html/unnamed-chunk-5-1.png" width="672" />

Let’s apply the empirical Bayes method and see how it looks.

bayes_emp <- career %>%
  add_ebb_estimate(h, ab)

bayes_emp

## # A tibble: 9,802 x 12
##    playerID  name      h    ab  year average .alpha1 .beta1 .fitted   .raw  .low
##    <chr>     <chr> <int> <int> <dbl>   <dbl>   <dbl>  <dbl>   <dbl>  <dbl> <dbl>
##  1 aaronha01 Hank~  3771 12364 1965   0.305   3845.   8816.   0.304 0.305  0.296
##  2 aaronto01 Tomm~   216   944 1967.  0.229    290.    951.   0.234 0.229  0.211
##  3 abadan01  Andy~     2    21 2003.  0.0952    76.4   242.   0.240 0.0952 0.195
##  4 abadijo01 John~    11    49 1875   0.224     85.4   261.   0.247 0.224  0.203
##  5 abbated01 Ed A~   772  3044 1905.  0.254    846.   2495.   0.253 0.254  0.239
##  6 abbotfr01 Fred~   107   513 1904   0.209    181.    629.   0.224 0.209  0.196
##  7 abbotje01 Jeff~   157   596 1999   0.263    231.    662.   0.259 0.263  0.231
##  8 abbotku01 Kurt~   523  2044 1997.  0.256    597.   1744.   0.255 0.256  0.238
##  9 abbotod01 Ody ~    13    70 1910   0.186     87.4   280.   0.238 0.186  0.196
## 10 abercda01 Fran~     0     4 1871   0         74.4   227.   0.247 0      0.200
## # ... with 9,792 more rows, and 1 more variable: .high <dbl>
…
Comparison

Let’s first combine the data and clean up the columns a little.

bayes_joined <- career %>%
  bind_cols(as_tibble(fitted(bayes_hier))) %>%
  mutate(hb_avg = Estimate / ab, hb_lower = Q2.5 / ab, hb_upper = Q97.5 / ab) %>%
  select(playerID, name, h, ab, raw_avg = average, hb_avg, hb_lower, hb_upper) %>%
  left_join(select(bayes_emp, playerID, eb_avg = .fitted, eb_lower = .low, eb_upper = .high),
            by = "playerID")

bayes_joined

## # A tibble: 9,802 x 11
##    playerID  name       h    ab raw_avg hb_avg hb_lower hb_upper eb_avg eb_lower
##    <chr>     <chr>  <int> <int>   <dbl>  <dbl>    <dbl>    <dbl>  <dbl>    <dbl>
##  1 aaronha01 Hank ~  3771 12364  0.305   0.304    0.296    0.312  0.304    0.296
##  2 aaronto01 Tommi~   216   944  0.229   0.234    0.211    0.258  0.234    0.211
##  3 abadan01  Andy ~     2    21  0.0952  0.240    0.198    0.289  0.240    0.195
##  4 abadijo01 John ~    11    49  0.224   0.247    0.204    0.294  0.247    0.203
##  5 abbated01 Ed Ab~   772  3044  0.254   0.253    0.239    0.268  0.253    0.239
##  6 abbotfr01 Fred ~   107   513  0.209   0.224    0.197    0.253  0.224    0.196
##  7 abbotje01 Jeff ~   157   596  0.263   0.259    0.231    0.288  0.259    0.231
##  8 abbotku01 Kurt ~   523  2044  0.256   0.255    0.238    0.273  0.255    0.238
##  9 abbotod01 Ody A~    13    70  0.186   0.238    0.196    0.285  0.238    0.196
## 10 abercda01 Frank~     0     4  0       0.247    0.201    0.298  0.247    0.200
## # ... with 9,792 more rows, and 1 more variable: eb_upper <dbl>
…
