…
}

I could probably have scraped the unique IDs but I figured it’d take me less time to just manually type them out. I then passed each of those to our new get_transcript() function to get the full transcripts.

speaker_ids <-  c(152086, 152087, 152106, 152089, 152103, 
                  152098, 152151, 152119, 152129,
                  152068, 152067, 152078, 152070,
                  152080, 152059, 152063, 152058, 152062)
transcripts <- map_df(speaker_ids, get_transcript)

transcripts

## # A tibble: 1,031 x 2
##    speaker    text                                                                                  
##    <chr>      <chr>                                                                                 
##  1 STEVE SHAW We're going to do two things today.  I know we still have people coming in, but we're~
##  2 STEVE SHAW And then the second part of this is going to be interactive.  Hopefully you have -- i~
##  3 STEVE SHAW So, this document, and I'm going to put it up here, it's also on the board, was reall~
##  4 STEVE SHAW Now, unfortunately not all of the activities are captured here, but the majority of t~
##  5 STEVE SHAW So, the first question we're going to hit today is, do you evaluate these guys?  Is t~
##  6 STEVE SHAW So every play in every game, just like the players, every play in every game is grade~
##  7 STEVE SHAW You can have a missed call.  It's still negative, but an incorrect -- when you put yo~
##  8 STEVE SHAW Many times there's plays with comment only to give feedback to the officials, so they~
##  9 STEVE SHAW The grading then goes that position specialist to validate it for that specific posit~
## 10 STEVE SHAW So that's the accountability on a weekly basis, but then if you flip the document to ~
## # ... with 1,021 more rows
Tokens

Let’s tokenize the transcripts and find the log-odds for each speaker. Luckily with tidylo it’s as simple as calling bind_log_odds after counting words spoken by each coach.

transcript_tokens <- transcripts %>% 
  unnest_tokens(word, text) %>% 
  anti_join(stop_words, by = "word") %>% 
  count(speaker, word) %>% 
  filter(!str_detect(speaker, "COMMISSIONER|MODERATOR|Q$")) %>% 
  bind_log_odds(speaker, word, n) %>% 
  arrange(-log_odds_weighted)

transcript_tokens

## # A tibble: 8,586 x 4
##    speaker       word            n log_odds_weighted
##    <chr>         <chr>       <int>             <dbl>
##  1 STEVE SHAW    targeting      68              17.8
##  2 STEVE SHAW    foul           29              13.7
##  3 BILL HANCOCK  football       11              12.7
##  4 BILL HANCOCK  cfp            12              12.5
##  5 STEVE SHAW    defenseless    23              12.2
##  6 STEVE SHAW    forcible       23              12.2
##  7 GREG SANKEY   officiating    21              12.1
##  8 WILL MUSCHAMP carolina       22              11.6
##  9 STEVE SHAW    replay         23              11.6
## 10 JIMBO FISHER  targeting       1              11.5
## # ... with 8,576 more rows
…
transcript_bigrams <- transcripts %>% 
  unnest_tokens(bigram, text, token = "ngrams", n = 2) %>% 
  separate(bigram, c("word1", "word2"), sep = " ") %>% 
  filter(!word1 %in% stop_words$word,
         !word2 %in% stop_words$word) %>% 
  unite(bigram, word1, word2, sep = " ") %>% 
  count(speaker, bigram) %>% 
  filter(!str_detect(speaker, "COMMISSIONER|MODERATOR|Q$")) %>% 
  bind_log_odds(speaker, bigram, n) %>% 
  arrange(-log_odds_weighted)

transcript_bigrams

## # A tibble: 3,860 x 4
##    speaker       bigram                 n log_odds_weighted
##    <chr>         <chr>              <int>             <dbl>
##  1 STEVE SHAW    forcible contact      23             11.9 
##  2 BILL HANCOCK  college football       8             11.7 
##  3 WILL MUSCHAMP south carolina        22             10.7 
##  4 STEVE SHAW    defenseless player    18             10.5 
##  5 JIMBO FISHER  south carolina         2              9.74
##  6 BILL HANCOCK  media days             3              7.95
##  7 MATT LUKE     football team          3              7.32
##  8 GUS MALZAHN   playing fast           6              6.98
##  9 STEVE SHAW    15 yard                8              6.93
## 10 STEVE SHAW    targeting foul         8              6.93
## # ... with 3,850 more rows
…
