…
* Not actually friends

debates <- read_csv("https://raw.githubusercontent.com/TylerSchnoebelen/US_debates/master/All_American_Presidential_and_VP_debates_since_Kennedy-Nixon-1960.csv") %>%
  clean_names() %>%
  select(-new_id) %>%
  bind_rows(dem_2020_2) %>%
  mutate(text = str_remove_all(text, "\\([A-Za-z-]*\\)"),
         speaker = str_remove(speaker, "^[A-Z]* "),
         speaker = if_else(str_detect(speaker, "ROURKE"), "O'ROURKE", speaker)) %>%
  filter(text != "")

debates

## # A tibble: 68,051 x 5
##    speaker text                        debate         election_year party  
##    <chr>   <chr>                       <chr>                  <dbl> <chr>  
##  1 SMITH   Good evening. The televisi~ Kennedy-Nixon~          1960 NON-CA~
##  2 KENNEDY Mr. Smith, Mr. Nixon. In t~ Kennedy-Nixon~          1960 DEMOCR~
##  3 SMITH   And now the opening statem~ Kennedy-Nixon~          1960 NON-CA~
##  4 NIXON   Mr. Smith, Senator Kennedy~ Kennedy-Nixon~          1960 REPUBL~
##  5 SMITH   "Thank you, Mr. Nixon. Tha~ Kennedy-Nixon~          1960 NON-CA~
##  6 FLEMING Senator, the Vice Presiden~ Kennedy-Nixon~          1960 NON-CA~
##  7 KENNEDY Well, the Vice President a~ Kennedy-Nixon~          1960 DEMOCR~
##  8 SMITH   Mr. Nixon, would you like ~ Kennedy-Nixon~          1960 NON-CA~
##  9 NIXON   I have no comment.          Kennedy-Nixon~          1960 REPUBL~
## 10 SMITH   The next question: Mr. Nov~ Kennedy-Nixon~          1960 NON-CA~
## # ... with 68,041 more rows
…
