…
  ep_scenes <- tables[[2]] %>% 
    as_tibble() %>% 
    select(-Picture) %>% 
    clean_names()
  
  cbind(ep_summary, ep_scenes) %>% 
    as_tibble()
}

Before we run through every episode lets make sure it works on a single episode.

get_ep_details(1000)

## # A tibble: 40 x 4
##    air_date   title       segment description                              
##    <date>     <chr>       <chr>   <chr>                                    
##  1 1977-03-11 Bob finds ~ SCENE 1 The Count has gotten up very early to co~
##  2 1977-03-11 Bob finds ~ Muppets "Five Anything Muppets sing the \"Numeri~
##  3 1977-03-11 Bob finds ~ Cartoon A boy gets lost, and encounters a man wi~
##  4 1977-03-11 Bob finds ~ Muppets Ernie & Bert — Ernie tells Bert that he ~
##  5 1977-03-11 Bob finds ~ Cartoon "\"I Can Remember\": A little girl remem~
##  6 1977-03-11 Bob finds ~ Song    "Marilyn Sokol sings \"Pockets\" over a ~
##  7 1977-03-11 Bob finds ~ Cartoon Two circles demonstrate next to and away~
##  8 1977-03-11 Bob finds ~ SCENE 2 Olivia is taking new ID photos for Bob. ~
##  9 1977-03-11 Bob finds ~ Cartoon "A girl imagines being next to a tree, a~
## 10 1977-03-11 Bob finds ~ Muppets Super Grover tries to stop a fight betwe~
## # ... with 30 more rows
…
ep_details

## # A tibble: 100,463 x 5
##       ep air_date   title            segment description                   
##    <dbl> <date>     <chr>            <chr>   <chr>                         
##  1     1 1969-11-10 Gordon introduc~ SCENE 1 "\"Sally, you've never seen a~
##  2     1 1969-11-10 Gordon introduc~ Muppets Ernie & Bert — Ernie tells Be~
##  3     1 1969-11-10 Gordon introduc~ Cartoon "Poor Solomon Grundy washes a~
##  4     1 1969-11-10 Gordon introduc~ Film    "You can clean almost anythin~
##  5     1 1969-11-10 Gordon introduc~ Song    "Ernie leads the cast in \"Ev~
##  6     1 1969-11-10 Gordon introduc~ Cartoon Dot Bridge #1                 
##  7     1 1969-11-10 Gordon introduc~ Film    "\"Three Song (Song of Three)~
##  8     1 1969-11-10 Gordon introduc~ SCENE 2 Sally drinks milk and eats co~
##  9     1 1969-11-10 Gordon introduc~ Film    "How milk is made, featuring ~
## 10     1 1969-11-10 Gordon introduc~ Cartoon Dot Bridge #1 (repeat)        
## # ... with 100,453 more rows
…
}

For this we can just directly pass the built-in vector letters as well as # for any character that starts with a number.

all_characters <- map_df(c("#", letters), get_characters) %>%
  distinct()

all_characters

## # A tibble: 1,733 x 1
##    name                                           
##    <chr>                                          
##  1 2102 Shady Lane                                
##  2 2104 Shady Lane                                
##  3 A. B. C-more                                   
##  4 A. B. Cito                                     
##  5 Abby Cadabby                                   
##  6 Abby Cadabby (animated)                        
##  7 Abby Cadabby's father                          
##  8 ABCDEFGHIJKLMNOPQRSTUVWXYZ Company Delivery Man
##  9 Abigail Snuffleupagus                          
## 10 Adam T. Glaser                                 
## # ... with 1,723 more rows
…
char_segment_count

## # A tibble: 17,328 x 7
##       ep air_date   ep_segments character char_segments char_total_segm~
##    <dbl> <date>           <int> <fct>             <int>            <int>
##  1     1 1969-11-10           7 Bert                  3             2191
##  2     1 1969-11-10           7 Big Bird              1             6195
##  3     1 1969-11-10           7 Cookie M~             1             1801
##  4     1 1969-11-10           7 Ernie                 6             2562
##  5     1 1969-11-10           7 Oscar th~             1             3566
##  6     2 1969-11-11          10 Bert                  2             2191
##  7     2 1969-11-11          10 Count                 1             2435
##  8     2 1969-11-11          10 Ernie                 2             2562
##  9     2 1969-11-11          10 Oscar th~             7             3566
## 10     3 1969-11-12           8 Bert                  1             2191
## # ... with 17,318 more rows, and 1 more variable: air_year <dbl>
…
  mutate(character = case_when(
    str_detect(character, "Oscar|Grouch") ~ "Oscar the Grouch",
    str_detect(character, "Snuffy") ~ "Snuffleupagus",
    TRUE ~ character)) %>% 
  distinct(ep, air_date, segment, character) %>% 
  group_by(ep) %>% 
  mutate(ep_segments = n_distinct(segment)) %>% 
  ungroup() %>% 
  count(ep, air_date, ep_segments, character, 
        name = "char_segments", sort = T) %>% 
  add_count(character, wt = char_segments, name = "char_total_segments") %>% 
  mutate(character = fct_reorder(character, -char_total_segments),
         air_year = year(air_date))

## # A tibble: 50,417 x 7
##       ep air_date   ep_segments character char_segments char_total_segm~
##    <dbl> <date>           <int> <fct>             <int>            <int>
##  1  4327 2012-11-09          25 Big Bird             22             6131
##  2  3803 1998-12-30          14 Big Bird             13             6131
##  3  3851 2000-01-03          19 Elmo                 13             3541
##  4     2 1969-11-11          19 Gordon               12             2848
##  5     6 1969-11-17          16 Gordon               12             2848
##  6     9 1969-11-20          18 Gordon               12             2848
##  7  2824 1991-02-28          17 Elmo                 12             3541
##  8  3046 1993-01-04          18 Elmo                 12             3541
##  9  3788 1998-11-18          15 Elmo                 12             3541
## 10  3912 2000-05-09          15 Elmo                 12             3541
## # ... with 50,407 more rows, and 1 more variable: air_year <dbl>
…
Not too shabby. We also see a lot of the humans like Maria, Al, Gordon, etc. showing up in here. I’m surprised to see Baby Bear up there, and I guess it makes sense Two-Headed Monster snuck in there by looming in the background a good amount.

Description Analysis

Let’s finish up with a quick little text analysis of the descriptions.

ep_tokens <- ep_details %>% 
  unnest_tokens(word, description)

ep_tokens

## # A tibble: 2,388,730 x 5
##       ep air_date   title                                 segment word     
##    <dbl> <date>     <chr>                                 <chr>   <chr>    
##  1     1 1969-11-10 Gordon introduces Sally to Sesame St~ SCENE 1 sally    
##  2     1 1969-11-10 Gordon introduces Sally to Sesame St~ SCENE 1 you've   
##  3     1 1969-11-10 Gordon introduces Sally to Sesame St~ SCENE 1 never    
##  4     1 1969-11-10 Gordon introduces Sally to Sesame St~ SCENE 1 seen     
##  5     1 1969-11-10 Gordon introduces Sally to Sesame St~ SCENE 1 a        
##  6     1 1969-11-10 Gordon introduces Sally to Sesame St~ SCENE 1 street   
##  7     1 1969-11-10 Gordon introduces Sally to Sesame St~ SCENE 1 like     
##  8     1 1969-11-10 Gordon introduces Sally to Sesame St~ SCENE 1 sesame   
##  9     1 1969-11-10 Gordon introduces Sally to Sesame St~ SCENE 1 street   
## 10     1 1969-11-10 Gordon introduces Sally to Sesame St~ SCENE 1 everythi~
## # ... with 2,388,720 more rows
…
