…
Monroe’s Data

Let’s join all three of these and see how they compare with the same data we used in the last post.

poliblog_combined <- poliblog_df %>% 
  add_monroe(rating, word, n) %>% 
  bind_log_odds(rating, word, n) %>% 
  add_blow(rating, word, n) %>% 
  rename(tidylo = log_odds_weighted,
         frech = zeta)

poliblog_combined

## # A tibble: 5,305 x 6
##    rating       word        n  monroe tidylo  frech
##    <fct>        <chr>   <dbl>   <dbl>  <dbl>  <dbl>
##  1 Conservative 21st       16 -2.81   -2.08  -3.59 
##  2 Conservative a.m        23 -2.60   -1.85  -3.19 
##  3 Conservative abandon    77  0.670   0.605  0.984
##  4 Conservative abc       165  0.326   0.441  0.723
##  5 Conservative abil      123 -1.00   -0.504 -0.840
##  6 Conservative abl       239 -1.63   -0.861 -1.44 
##  7 Conservative abort     253  2.91    2.26   3.60 
##  8 Conservative abroad     58  0.189   0.259  0.424
##  9 Conservative absolut   127 -1.45   -0.815 -1.37 
## 10 Conservative absurd     52  0.0196  0.136  0.224
## # ... with 5,295 more rows
…
Let’s compare the 3 methods again, though this time I’m going to add an additional version of mine that doesn’t penalize the prior with Monroe’s 10% based on what I was seeing in the output.

jane_combined <- bigram_counts %>% 
  add_monroe(book, bigram, n) %>% 
  bind_log_odds(book, bigram, n) %>% 
  add_blow(book, bigram, n) %>% 
  rename(tidylo = log_odds_weighted,
         frech = zeta) %>% 
  add_blow(book, bigram, n, .k_prior = 1) %>% 
  rename(frech_full = zeta)

jane_combined

## # A tibble: 300,903 x 7
##    book                bigram     n monroe tidylo  frech frech_full
##    <fct>               <chr>  <int>  <dbl>  <dbl>  <dbl>      <dbl>
##  1 Mansfield Park      of the   712  8.99  -2.98   2.59       1.22 
##  2 Mansfield Park      to be    612  6.95  -3.73   0.607     -0.231
##  3 Emma                to be    586  5.89  -3.77  -0.336     -0.812
##  4 Mansfield Park      in the   533  7.10  -2.99   1.47       0.470
##  5 Emma                of the   529  2.20  -5.39  -3.72      -3.31 
##  6 Pride & Prejudice   of the   439 -0.962 -1.21  -1.65      -1.17 
##  7 Emma                it was   430  7.74  -1.83   2.32       1.27 
##  8 Pride & Prejudice   to be    422 -0.247 -0.987 -1.13      -0.786
##  9 Sense & Sensibility to be    418 -0.426 -0.637 -0.942     -0.596
## 10 Emma                in the   416  2.13  -4.67  -3.12      -2.80 
## # ... with 300,893 more rows
…
titles_combined <- title_bigrams %>% 
  add_monroe(title, bigram, n) %>% 
  bind_log_odds(title, bigram, n) %>% 
  add_blow(title, bigram, n) %>% 
  rename(tidylo = log_odds_weighted,
         frech = zeta) %>% 
  add_blow(title, bigram, n, .k_prior = 1) %>% 
  rename(frech_full = zeta)

titles_combined

## # A tibble: 231,233 x 7
##    title                          bigram     n    monroe tidylo frech frech_full
##    <chr>                          <chr>  <int>     <dbl>  <dbl> <dbl>      <dbl>
##  1 Alice's Adventures in Wonderl~ a baby     2  4.60e- 1   3.05  3.64       4.03
##  2 Alice's Adventures in Wonderl~ a back     1  1.58e- 1   2.25  2.48       2.80
##  3 Alice's Adventures in Wonderl~ a bad      1 -3.85e- 2   1.89  1.88       1.87
##  4 Alice's Adventures in Wonderl~ a bar~     2  2.08e-10   3.23  3.73       4.09
##  5 Alice's Adventures in Wonderl~ a bat      2  2.08e-10   3.23  3.73       4.09
##  6 Alice's Adventures in Wonderl~ a bird     1 -9.23e- 1   3.33  1.01       1.17
##  7 Alice's Adventures in Wonderl~ a bit      8  1.04e+ 0   6.02  7.34       8.10
##  8 Alice's Adventures in Wonderl~ a blow     1 -1.04e- 1   2.46  2.28       2.62
##  9 Alice's Adventures in Wonderl~ a body     1 -1.49e- 1   2.46  2.24       2.27
## 10 Alice's Adventures in Wonderl~ a bone     1 -3.29e- 1   2.65  2.05       2.08
## # ... with 231,223 more rows
…
<img src="{{< blogdown/postref >}}index_files/figure-html/unnamed-chunk-20-1.png" width="100%" />

Way more stop words than we saw with Jane Austen novels that makes it hard to really identify best method because no method is consistently good on all titles, though it’s clear that Monroe is out.

Research suggests you can identify authors by stop word usage because it’s the connector words that act as the glue in a story. Here’s an example of a paper using stop words to classify authors.

So what if we didn’t have this issue with Jane Austen novels because her stop words all cancelled out? Let’s take another look at top bigrams within the novels to see if perhaps Julia just filtered them out.

bigram_counts

## # A tibble: 300,903 x 3
##    book                bigram     n
##    <fct>               <chr>  <int>
##  1 Mansfield Park      of the   712
##  2 Mansfield Park      to be    612
##  3 Emma                to be    586
##  4 Mansfield Park      in the   533
##  5 Emma                of the   529
##  6 Pride & Prejudice   of the   439
##  7 Emma                it was   430
##  8 Pride & Prejudice   to be    422
##  9 Sense & Sensibility to be    418
## 10 Emma                in the   416
## # ... with 300,893 more rows
…
shakespeare_combined <- shakespeare_bigrams %>% 
  add_monroe(title, bigram, n) %>% 
  bind_log_odds(title, bigram, n) %>% 
  add_blow(title, bigram, n) %>% 
  rename(tidylo = log_odds_weighted,
         frech = zeta) %>% 
  add_blow(title, bigram, n, .k_prior = 1) %>% 
  rename(frech_full = zeta)

shakespeare_combined

## # A tibble: 71,151 x 7
##    title                     bigram             n monroe tidylo frech frech_full
##    <chr>                     <chr>          <int>  <dbl>  <dbl> <dbl>      <dbl>
##  1 A Midsummer Night's Dream " complete"        1 0.0100  0.651 0.377      0.469
##  2 A Midsummer Night's Dream "1 are"            9 0.0300  1.95  1.13       1.41 
##  3 A Midsummer Night's Dream "1 license"        1 0.0100  0.651 0.377      0.469
##  4 A Midsummer Night's Dream "1 the"            1 0.0100  0.651 0.377      0.469
##  5 A Midsummer Night's Dream "10 of"            1 0.0100  0.651 0.377      0.469
##  6 A Midsummer Night's Dream "10000 x"          1 0.0100  0.651 0.377      0.469
##  7 A Midsummer Night's Dream "100000000 tr~     1 0.0100  0.651 0.377      0.469
##  8 A Midsummer Night's Dream "1113 txt"         1 0       1.71  1.28       1.39 
##  9 A Midsummer Night's Dream "1113 zip"         1 0       1.71  1.28       1.39 
## 10 A Midsummer Night's Dream "1514 at"          1 0       1.71  1.28       1.39 
## # ... with 71,141 more rows
…
