…
The tricky bit then becomes how to estimate $\alpha_0$. In they paper they mention using 500 because it’s the average number of words per day per party on each topic in their data set. So that’s one option, but let’s see what our friends Silge and Monroe have done as well.

Tidylo

The tidylo package defaults to using an empirical Bayes approach and estimating the prior from the data itself, although the user can opt to use an uninformative Dirichlet prior instead with prior set to 1 for each feature. The prior only takes a few lines and is pretty easy to spot in the source code (edited slightly to remove tidy evaluation):

pseudo <- poliblog_df 
feat_counts <- count(pseudo, word, wt = n, name = ".n")
feat_counts <- left_join(poliblog_df, feat_counts, by = "word")
pseudo$alpha <- feat_counts$.n

pseudo

## # A tibble: 5,318 x 4
##    rating       word        n alpha
##    <fct>        <chr>   <dbl> <dbl>
##  1 Conservative 21st       16    89
##  2 Conservative â           0   492
##  3 Conservative a.m        23   100
##  4 Conservative abandon    77   133
##  5 Conservative abc       165   307
##  6 Conservative abil      123   271
##  7 Conservative abl       239   538
##  8 Conservative abort     253   373
##  9 Conservative abroad     58   108
## 10 Conservative absolut   127   296
## # ... with 5,308 more rows

We can make this even easier with some refactoring:

poliblog_df %>% 
  add_count(word, wt = n, name = "alpha")

## # A tibble: 5,318 x 4
##    rating       word        n alpha
##    <fct>        <chr>   <dbl> <dbl>
##  1 Conservative 21st       16    89
##  2 Conservative â           0   492
##  3 Conservative a.m        23   100
##  4 Conservative abandon    77   133
##  5 Conservative abc       165   307
##  6 Conservative abil      123   271
##  7 Conservative abl       239   538
##  8 Conservative abort     253   373
##  9 Conservative abroad     58   108
## 10 Conservative absolut   127   296
## # ... with 5,308 more rows
…
Now we can calculate the prior and resulting posterior:

g.prior <- tcrossprod(rowSums(dtm.nz),colSums(dtm.nz))/sum(dtm.nz)
g.posterior <- as.matrix(dtm.nz + k.prior*g.prior)

as_tibble(g.posterior, rownames = "doc_id")

## # A tibble: 5,000 x 2,660
##    doc_id   happi  think    team    barri   thank   clark    big obama  latest
##    <chr>    <dbl>  <dbl>   <dbl>    <dbl>   <dbl>   <dbl>  <dbl> <dbl>   <dbl>
##  1 6787   3.00    1.05   1.01    1.00     1.01    2.00    1.02   4.18  1.00   
##  2 8150   0.00305 1.05   0.00967 0.00138  0.00795 0.00275 0.0186 1.21  0.00571
##  3 4961   0.00262 1.04   0.00828 0.00118  0.00681 0.00236 0.0159 0.176 1.00   
##  4 5767   0.00266 0.0457 0.00840 0.00120  0.00691 0.00239 0.0162 0.178 0.00497
##  5 2803   0.00256 0.0440 0.00809 0.00116  0.00665 0.00230 0.0156 2.17  0.00478
##  6 2359   0.00695 1.12   0.0220  0.00315  0.0181  0.00626 1.04   0.467 0.0130 
##  7 586    0.00188 1.03   0.00594 0.000850 0.00488 0.00169 0.0114 6.13  0.00351
##  8 6033   0.00242 0.0416 0.00764 0.00109  0.00629 0.00218 0.0147 4.16  1.00   
##  9 11745  0.00453 1.08   0.0143  0.00205  0.0118  0.00408 0.0276 9.30  1.01   
## 10 923    0.00244 0.0419 0.00771 0.00110  0.00634 0.00219 0.0148 0.164 0.00456
## # ... with 4,990 more rows, and 2,650 more variables: go <dbl>, mccain <dbl>,
## #   patriot <dbl>, instead <dbl>, clip <dbl>, name <dbl>, clear <dbl>,
## #   enough <dbl>, target <dbl>, today <dbl>, follow <dbl>, grand <dbl>,
## #   tradit <dbl>, essenti <dbl>, speech <dbl>, design <dbl>, get <dbl>,
## #   polit <dbl>, american <dbl>, charact <dbl>, media <dbl>, across <dbl>,
## #   wonder <dbl>, part <dbl>, one <dbl>, repudi <dbl>, later <dbl>, date <dbl>,
## #   becom <dbl>, full <dbl>, transcript <dbl>, servic <dbl>, near <dbl>, ...
…
Let’s wrangle this and join it to original data so we can try to deduce what’s happening here for those of us not experts in linear algebra. We can add this aggregated posterior to the tibble we created earlier and with some easy arithmetic calculate the prior.

monroe_post <- left_join(poliblog_df,
                         g.adtm %>% 
                           as_tibble(rownames = "rating") %>% 
                           gather(word, posterior, -rating),
                         by = c("rating", "word")) %>% 
  mutate(prior = posterior - n)

monroe_post

## # A tibble: 5,318 x 5
##    rating       word        n posterior prior
##    <chr>        <chr>   <dbl>     <dbl> <dbl>
##  1 Conservative 21st       16      20.4  4.45
##  2 Conservative â           0      24.6 24.6 
##  3 Conservative a.m        23      28.0  5.00
##  4 Conservative abandon    77      83.6  6.64
##  5 Conservative abc       165     180.  15.3 
##  6 Conservative abil      123     137.  13.5 
##  7 Conservative abl       239     266.  26.9 
##  8 Conservative abort     253     272.  18.6 
##  9 Conservative abroad     58      63.4  5.40
## 10 Conservative absolut   127     142.  14.8 
## # ... with 5,308 more rows

We now have the value but need to figure out how to calculate it in a tidy fashion. The function again gives us a clue with the parameter for k.prior, which is set at 0.1 as default. The posterior is calculated as dtm.nz + k.prior*g.prior, which we can reframe as n + 0.1*g.prior. So now we can break down the prior a little more.

monroe_post <- monroe_post %>% 
  mutate(g.prior = prior / 0.1)

We’ve now isolated values for g.prior value in Monroe’s function, which is calculated with tcrossprod(rowSums(dtm.nz),colSums(dtm.nz))/sum(dtm.nz). Given this is still based on the document-term matrix we know rows will give total words per document, columns will give total frequency of a given word, and sum of the entire DTM will give total number of words. After some trial and error I’m able to create this in a tidy version.

poliblog_df %>% 
  add_tally(wt = n, name = "total_cnt") %>%
  add_count(word, wt = n, name = "word_cnt") %>%
  add_count(rating, wt = n, name = "group_cnt") %>%
  mutate(g_prior = word_cnt / total_cnt * group_cnt)

## # A tibble: 5,318 x 7
##    rating       word        n total_cnt word_cnt group_cnt g_prior
##    <fct>        <chr>   <dbl>     <dbl>    <dbl>     <dbl>   <dbl>
##  1 Conservative 21st       16   1006707       89    502918    44.5
##  2 Conservative â           0   1006707      492    502918   246. 
##  3 Conservative a.m        23   1006707      100    502918    50.0
##  4 Conservative abandon    77   1006707      133    502918    66.4
##  5 Conservative abc       165   1006707      307    502918   153. 
##  6 Conservative abil      123   1006707      271    502918   135. 
##  7 Conservative abl       239   1006707      538    502918   269. 
##  8 Conservative abort     253   1006707      373    502918   186. 
##  9 Conservative abroad     58   1006707      108    502918    54.0
## 10 Conservative absolut   127   1006707      296    502918   148. 
## # ... with 5,308 more rows
…
Paper

We don’t have a guidepost here but the explanation seems easy enough to deduce. Here’s my take on it.

poliblog_df %>% 
  rename(count = n) %>% 
  add_count(rating, wt = count, name = "group_count") %>% 
  nest(data = c(word, count)) %>% 
  mutate(alpha0 = mean(group_count)) %>% 
  unnest(data) %>% 
  add_tally(wt = count, name = "n") %>% 
  add_count(word, wt = count, name = "y") %>% 
  mutate(g_prior = y / n * alpha0)

## # A tibble: 5,318 x 8
##    rating       group_count word    count  alpha0       n     y g_prior
##    <fct>              <dbl> <chr>   <dbl>   <dbl>   <dbl> <dbl>   <dbl>
##  1 Conservative      502918 21st       16 503354. 1006707    89    44.5
##  2 Conservative      502918 â           0 503354. 1006707   492   246  
##  3 Conservative      502918 a.m        23 503354. 1006707   100    50  
##  4 Conservative      502918 abandon    77 503354. 1006707   133    66.5
##  5 Conservative      502918 abc       165 503354. 1006707   307   154. 
##  6 Conservative      502918 abil      123 503354. 1006707   271   136. 
##  7 Conservative      502918 abl       239 503354. 1006707   538   269  
##  8 Conservative      502918 abort     253 503354. 1006707   373   186. 
##  9 Conservative      502918 abroad     58 503354. 1006707   108    54  
## 10 Conservative      502918 absolut   127 503354. 1006707   296   148  
## # ... with 5,308 more rows
…
tbl

## # A tibble: 5,318 x 5
##    rating       word        n log_odds log_odds_weighted
##    <fct>        <chr>   <dbl>    <dbl>             <dbl>
##  1 Conservative 21st       16  -0.240             -2.08 
##  2 Conservative â           0  -0.405             -7.79 
##  3 Conservative a.m        23  -0.198             -1.85 
##  4 Conservative abandon    77   0.0516             0.605
##  5 Conservative abc       165   0.0250             0.441
##  6 Conservative abil      123  -0.0310            -0.504
##  7 Conservative abl       239  -0.0376            -0.861
##  8 Conservative abort     253   0.113              2.26 
##  9 Conservative abroad     58   0.0247             0.259
## 10 Conservative absolut   127  -0.0482            -0.815
## # ... with 5,308 more rows
…
poliblog_df %>% 
  add_count(word, wt = n, name = "alpha") %>% 
  mutate(y_wi = n + alpha) %>% 
  add_count(word, wt = y_wi, name = 'y_w') %>% 
  add_count(rating, wt = y_wi, name = "n_i") %>% 
  mutate(omega_wi = y_wi/(n_i - y_wi), 
         omega_w = y_w/(sum(y_wi) - y_w), 
         delta_wi = log(omega_wi) - log(omega_w), 
         sigma2_wi = 1/y_wi + 1/y_w, 
         zeta_wi = delta_wi/sqrt(sigma2_wi)) %>% 
  rename(log_odds_weighted = zeta_wi,
         log_odds = delta_wi) %>% 
  select(-y_wi, -y_w, -n_i, -omega_wi, -omega_w, -sigma2_wi, -alpha)

## # A tibble: 5,318 x 5
##    rating       word        n log_odds log_odds_weighted
##    <fct>        <chr>   <dbl>    <dbl>             <dbl>
##  1 Conservative 21st       16  -0.240             -2.08 
##  2 Conservative â           0  -0.405             -7.79 
##  3 Conservative a.m        23  -0.198             -1.85 
##  4 Conservative abandon    77   0.0516             0.605
##  5 Conservative abc       165   0.0250             0.441
##  6 Conservative abil      123  -0.0310            -0.504
##  7 Conservative abl       239  -0.0376            -0.861
##  8 Conservative abort     253   0.113              2.26 
##  9 Conservative abroad     58   0.0247             0.259
## 10 Conservative absolut   127  -0.0482            -0.815
## # ... with 5,308 more rows
…
tidy_delta

## # A tibble: 5,318 x 5
##    rating       word        n posterior tidy_delta
##    <fct>        <chr>   <dbl>     <dbl>      <dbl>
##  1 Conservative 21st       16      4.45    -0.699 
##  2 Conservative â           0     24.6     -1.56  
##  3 Conservative a.m        23      5.00    -0.570 
##  4 Conservative abandon    77      6.64     0.112 
##  5 Conservative abc       165     15.3      0.0356
##  6 Conservative abil      123     13.5     -0.117 
##  7 Conservative abl       239     26.9     -0.134 
##  8 Conservative abort     253     18.6      0.304 
##  9 Conservative abroad     58      5.40     0.0348
## 10 Conservative absolut   127     14.8     -0.162 
## # ... with 5,308 more rows

Let’s join this to Monroe’s data and compare.

g.delta %>% 
  as_tibble(rownames = "rating") %>% 
  gather(word, monroe_delta, -rating) %>% 
  left_join(tidy_delta, by = c("rating", "word"))

## # A tibble: 5,318 x 6
##    rating       word  monroe_delta     n posterior tidy_delta
##    <chr>        <chr>        <dbl> <dbl>     <dbl>      <dbl>
##  1 Conservative happi     -0.0191    102     10.0    -0.0191 
##  2 Liberal      happi      0.0191     99     10.1     0.0191 
##  3 Conservative think     -0.218    1381    173.     -0.218  
##  4 Liberal      think      0.218    2077    173.      0.218  
##  5 Conservative team       0.0591    350     31.8     0.0591 
##  6 Liberal      team      -0.0591    286     31.8    -0.0591 
##  7 Conservative barri      0.814      80      4.55    0.814  
##  8 Liberal      barri     -0.814      11      4.55   -0.814  
##  9 Conservative thank     -0.00656   269     26.1    -0.00656
## 10 Liberal      thank      0.00656   254     26.2     0.00656
## # ... with 5,308 more rows
…
tidy_se

## # A tibble: 5,318 x 3
##    rating       word    tidy_se
##    <fct>        <chr>     <dbl>
##  1 Conservative 21st     0.249 
##  2 Conservative â        0.206 
##  3 Conservative a.m      0.219 
##  4 Conservative abandon  0.167 
##  5 Conservative abc      0.109 
##  6 Conservative abil     0.116 
##  7 Conservative abl      0.0827
##  8 Conservative abort    0.104 
##  9 Conservative abroad   0.184 
## 10 Conservative absolut  0.112 
## # ... with 5,308 more rows

Now let’s join that code to Monroe’s code for comparison, and why not invite tidylo to the party as well.

combined_se <- g.se %>% 
  as_tibble(rownames = "rating") %>% 
  gather(word, monroe_se, -rating) %>% 
  left_join(tidy_se, by = c("rating", "word")) %>% 
  left_join(transmute(results, rating, word, tidylo_se = sqrt(sigma2_wi)), 
            by = c("rating", "word"))

combined_se

## # A tibble: 5,318 x 5
##    rating       word  monroe_se tidy_se tidylo_se
##    <chr>        <chr>     <dbl>   <dbl>     <dbl>
##  1 Conservative happi    0.135   0.135     0.0704
##  2 Liberal      happi    0.135   0.135     0.0707
##  3 Conservative think    0.0330  0.0330    0.0174
##  4 Liberal      think    0.0330  0.0330    0.0166
##  5 Conservative team     0.0760  0.0760    0.0392
##  6 Liberal      team     0.0760  0.0760    0.0401
##  7 Conservative barri    0.276   0.276     0.0975
##  8 Liberal      barri    0.276   0.276     0.116 
##  9 Conservative thank    0.0834  0.0834    0.0436
## 10 Liberal      thank    0.0834  0.0834    0.0439
## # ... with 5,308 more rows
…
